{
  "project_info": {
    "project_number": "841644895705",
    "project_id": "donmisit-176710"
  },
  "client": [
    {
      "client_info": {
        "mobilesdk_app_id": "1:841644895705:android:d35e2c3e04ae08ab",
        "android_client_info": {
          "package_name": "com.donmisit"
        }
      },
      "oauth_client": [
        {
          "client_id": "841644895705-1pqrpfnjt2er3tfq4rvfadco7m4s4lfc.apps.googleusercontent.com",
          "client_type": 1,
          "android_info": {
            "package_name": "com.donmisit",
            "certificate_hash": "e218c66680ce833b3c24f678a434a51fd3d77dae"
          }
        },
        {
          "client_id": "841644895705-tghukl0edqe74n1gomcl9ab9dsgvautn.apps.googleusercontent.com",
          "client_type": 3
        }
      ],
      "api_key": [
        {
          "current_key": "AIzaSyCsT-E_7B5ZKwAjb1XaT0LXaczq3uaVNlE"
        }
      ],
      "services": {
        "analytics_service": {
          "status": 1
        },
        "appinvite_service": {
          "status": 1,
          "other_platform_oauth_client": []
        },
        "ads_service": {
          "status": 1
        }
      }
    }
  ],
  "configuration_version": "1"
}